in -> A, B, C, D, E, F;
in;
A; OUT(A);
B; OUT(B);
C; OUT(C);
D; OUT(D);
E; OUT(E);
F; OUT(F);
CNT(); OUTPUT();
RESET(A, B, C, D, E, F, CNT, ROM, FLAG);
ALU(ADD);
ALU(NOT_L);
ALU(NOT_R);
ALU(L_ADD);
ALU(L_SUB);
ALU(R_ADD);
ALU(R_SUB);
ALU(XOR);
LL(A, B, C, D, E, F);
LR(A, B, C, D, E, F);
AL(A, B, C, D, E, F);
AR(A, B, C, D, E, F);
CL(A, B, C, D, E, F);
CR(A, B, C, D, E, F);